{
  "personalDetail": {
      "name": "Liu Kai Siang",
      "address1": "15, Jalan PP8, Taman Pinggiran Putra,",
      "address2": "43300 Seri Kembangan, Selangor,",
      "address3": "Malaysia.",
      "phone": "0167966153",
      "email": "liukaisiang@yahoo.com"
  },
  "jobDetail": {
      "jobTitle": "Software Engineer",
      "careerObjectives1": "To obtain a challenging position that allows me to utilize my current skills to assist in advancing a business that offers a stable employment opportunity. I am also eager to learn new skills and business and technological advancements.",
      "careerObjectives2": "Become a capable employee who has sufficient relevant knowledge and technical skills in order to meet every level of task requirement and its difficulty.",
      "workExps": [
          {
              "jobTitle": "Software Engineer",
              "company": "Moneylion Malaysia",
              "period": "2014 - current",
              "skills": [
                  "Mongodb for database.",
                  "Java Spring MVC framework for backend language.",
                  "Use Maven for Object-oriented programming.",
                  "NodeJs framework such as swagger.",
                  "Frontend framework such as meteor.",
                  "HTML5, Javascript, CSS and bootstrap for frontend scripting.",
                  "Basic knowledge for angularjs.",
                  "Learned linux.",
                  "Production environment of web development such as Jira, Stash and Bamboo."
              ]
          },
          {
              "jobTitle": "Senior Software Engineer",
              "company": "Neuramatix",
              "period": "2009 - 2014",
              "skills": [
                  "Using Java to create parallel text alignment program. The program able to split 2 different language(English-Malay, English-Indonesia or English-Chinese) and align according to its translation. The result will be updated to Translate Database to improve translation result.",
                  "Learned website front end development. Learned HTML5, Javascript, CSS and Websocket and deal with user interactive, mouse event and touch event for phone and tablet. Familiar with HTML5 to create powerful website, such as video call. Familiar with Canvas in HTML5 to perform image processing to create a simple image editing tool(simple version of photoshop/gimp). Using Websocket technology to create chat room in the website. Familiar with Javascript and CSS to create a desired website.",
                  "Learned Java and C/C++ Programming",
                  "Learned basic Android development. Participated in basic android development training. Using webview in Android to open a website and make it looks like an apps.",
                  "Due to confidential contract has been signed, the portfolio is unable to display. It is a big project including a lot of new feature provided by HTML5 and canvas."
              ]
          },
          {
              "jobTitle": "Industrial Training",
              "company": "Xirien Technologies",
              "period": "2008 - 2009 (3 months)",
              "skills": [
                  "Trainee for Software Engineer",
                  "Learned Adobe Flex and Java programming language"
              ]
          }
      ]
  },
  "keySkills": [
      "Java Spring MVC framework",
      "NodeJs framework",
      "Maven",
      "Git",
      "Linux",
      "HTML5",
      "Javascript",
      "CSS",
      "bootstrap",
      "Websocket",
      "Android",
      "Java",
      "Web development",
      "Logic thinking",
      "Mathematics calculation"
  ],    
  "educations": [
      {
        "institution": "Multimedia University (Cyberjaya), Malaysia",
        "qualification": "Bachelor Degree",
        "details": [
            "Degree in Bachelor of Engineering (Hons) Electronics majoring in Telecommunications.",
            "Graduate with CGPA 3.75.",
            ""
        ]
      },
      {
        "institution": "Sekolah Menegah Kebangsaan Tinggi Kluang",
        "qualification": "STPM",
        "details": [
            "Sekolah Tinggi Persekolah Malaysia (STPM): 1B+, 1B, 2C+.",
            "Malaysian University English Test (MUET): Band 3."
        ]
      }
  ]    
}